{
    "file": "ListFlash",
    "source": "element",
    "props":
    {
        "color": "lightgreen",
        "title":
        {
            "font":
            {
                "pixelSize": 25,
                "bold": true
            },
            "color": "plum",
            "text": "Sound"
        },
        "explain":
        {
            "font":
            {
                "pixelSize": 15
            },
            "color": "orchid",
            "text": "Select the sounds you want to hear\nand choose the general sound settings"
        },
        "globnav":
        {
            "file": "ButtonCombo",
            "source": "common",
            "props":
            {
                "icon": "qrc:/image/globnav/IconBurgerNormal.png"
            },
            "models":
            [
                {
                    "set": "population",
                    "data":
                    {
                        "get": "globnav",
                        "source": "general"
                    }
                }
            ]
        },
        "objects":
        {
            "file": "ObjectsList",
            "source": "common",
            "models":
            [
                {
                    "set": "population",
                    "data":
                    {
                        "get": "sounds_list",
                        "source": "machine"
                    }
                }
            ]
        }
    }
}
