{
    "value":
    [
        {
            "objectName": "connection",
            "clicko":
            {
                "_command": "io",
                "source": "wifi",
                "use": "connection"
            },
            "text": "Connection"
        },
        {
            "objectName": "сredentials",
            "clicko":
            {
                "_command": "io",
                "source": "wifi",
                "use": "сredentials"
            },
            "text": "Credentials"
        },
        {
            "objectName": "my_bernina_cloud",
            "clicko":
            {
                "command": "io",
                "source": "wifi",
                "use": "my_bernina_cloud"
            },
            "text": "My BERNINA Cloud"
        }
    ]
}
