{
    "value":
    [
        {
            "delegate":
            {
                "file": "LinkButton",
                "source": "common",
                "props":
                {
                    "objectName": "my_bernina_cloud_register",
                    "textDisplay":
                    {
                        "color": "lightskyblue",
                        "font":
                        {
                            "pixelSize": 15
                        },
                        "text": "Register"
                    },
                    "visited": "orchid",
                    "clicko":
                    {
                        "_command": "pop",
                        "source": "popup",
                        "use": "my_bernina_cloud_register"
                    }
                }
            }
        },
        {
            "delegate":
            {
                "file": "LinkButton",
                "source": "common",
                "props":
                {
                    "objectName": "my_bernina_cloud_forgot_password",
                    "textDisplay":
                    {
                        "color": "lightskyblue",
                        "font":
                        {
                            "pixelSize": 15
                        },
                        "text": "Forgot Password?"
                    },
                    "visited": "orchid",
                    "clicko":
                    {
                        "command": "pop",
                        "source": "popup",
                        "use": "message"
                    }
                },
                "models":
                [
                    {
                        "set": "msg",
                        "binding":
                        {
                            "get": "my_bernina_cloud_forgot_password_message",
                            "source": "volatile"
                        }
                    }
                ]
            }
        }
    ]
}
