{
    "value":
    [
        {
            "delegate":
            {
                "file": "InputLineDelegate",
                "source": "model",
                "props":
                {
                    "objectName": "user_name"
                },
                "models":
                [
                    {
                        "set": "at",
                        "reference":
                        {
                            "get": "QtModel.mainAppModel.subAppSettings.general.user_bernina_cloud_at.username"
                        }
                    }
                ]
            }
        },
        {
            "delegate":
            {
                "file": "SeperatorLineDelegate",
                "source": "model",
                "props":
                {
                    "objectName": "seperator_1"
                }
            }
        },
        {
            "delegate":
            {
                "file": "InputLineDelegate",
                "source": "model",
                "props":
                {
                    "objectName": "user_password"
                },
                "models":
                [
                    {
                        "set": "at",
                        "reference":
                        {
                            "get": "QtModel.mainAppModel.subAppSettings.general.user_bernina_cloud_at.userpassword"
                        }
                    }
                ]
            }
        },
        {
            "delegate":
            {
                "file": "SeperatorLineDelegate",
                "source": "model",
                "props":
                {
                    "objectName": "seperator_2"
                }
            }
        },
        {
            "delegate":
            {
                "file": "ButtonPositionerDelegate",
                "source": "model",
                "props":
                {
                    "flowSpacing": 10
                },
                "models":
                [
                    {
                        "set": "positioner",
                        "data":
                        {
                            "get": "my_bernina_cloud_reg_flow",
                            "source": "wifi"
                        }
                    }
                ]
            }
        },
        {
            "delegate":
            {
                "file": "SeperatorLineDelegate",
                "source": "model",
                "props":
                {
                    "objectName": "seperator_3"
                }
            }
        },
        {
            "delegate":
            {
                "file": "CheckGlobalAccessDelegate",
                "source": "model",
                "props":
                {
                    "objectName": "check_user_password",
                    "titleSuccess": "Success",
                    "messageSuccess": "You have successfully signed into your\n'My BERNINA CLoud' account!",
                    "titleFail": "Oops! That didn't work this time",
                    "messageFail": "Try again !!!\n\nIf you have not registered yet use 'Register'.\n\nIf you have forgotten your password use 'Forgot Password?'."
                },
                "models":
                [
                    {
                        "set": "globalUsers",
                        "reference":
                        {
                            "get": "QtModel.mainAppModel.subAppSettings.general.bernina_cloud_users"
                        }
                    },
                    {
                        "set": "globalIndexTo",
                        "reference":
                        {
                            "get": "QtModel.mainAppModel.subAppSettings.general.user_bernina_cloud_select"
                        }
                    },
                    {
                        "set": "at",
                        "reference":
                        {
                            "get": "QtModel.mainAppModel.subAppSettings.general.user_bernina_cloud_at"
                        }
                    }
                ]
            }
        }
    ]
}
