{
    "value":
    [
        {
            "delegate":
            {
                "file": "ButtonFlow",
                "source": "common",
                "props":
                {
                    "objectName": "my_bernina_cloud_reg_flow"
                },
                "models":
                [
                    {
                        "set": "population",
                        "data":
                        {
                            "get": "my_bernina_cloud_reg_flow_buttons",
                            "source": "wifi"
                        }
                    }
                ]
            }
        }
    ]
}
