{
    "value":
    [
        {
            "from": "qrc:/splash/baustelle-0132.gif"
        },
        {
            "from": "qrc:/splash/baustelle-0175.gif"
        },
        {
            "from": "qrc:/splash/baustelle-0177.gif"
        },
        {
            "from": "qrc:/splash/baustelle-0186.gif"
        },
        {
            "from": "qrc:/splash/baustelle-0187.gif"
        },
        {
            "from": "qrc:/splash/linie-0366.gif"
        },
        {
            "from": "qrc:/splash/underconstruction-0059.gif"
        },
        {
            "from": "qrc:/splash/underconstruction-0069.gif"
        },
        {
            "from": "qrc:/splash/underconstruction-0072.gif"
        },
        {
            "from": "qrc:/splash/underconstruction-0082.gif"
        },
        {
            "from": "qrc:/splash/underconstruction-0085.gif"
        },
        {
            "from": "qrc:/splash/underconstruction-0105.gif"
        },
        {
            "from": "qrc:/splash/underconstruction-0134.gif"
        },
        {
            "from": "qrc:/splash/underconstruction-0139.gif"
        },
        {
            "from": "qrc:/splash/underconstruction-0154.gif"
        },
        {
            "from": "qrc:/splash/underconstruction-0157.gif"
        },
        {
            "from": "qrc:/splash/underconstruction-0164.gif"
        },
        {
            "from": "qrc:/splash/underconstruction-0183.gif"
        },
        {
            "from": "qrc:/splash/underconstruction-0207.gif"
        },
        {
            "from": "qrc:/splash/underconstruction-0208.gif"
        },
        {
            "from": "qrc:/splash/underconstruction-0212.gif"
        }
    ]
}
